{
  "meta" : {
    "page" : 1,
    "pageSize" : 20,
    "totalPages" : 12,
    "updated" : "2024-11-10T23:59:59Z",
    "counts" : {
      "total" : 4664,
      "byType" : [ {
        "type" : "UnitedKingdomPublicGeneralAct",
        "count" : 4664
      } ],
      "byYear" : [ {
        "year" : 2024,
        "count" : 24
      }, {
        "year" : 2023,
        "count" : 57
      }, {
        "year" : 2022,
        "count" : 48
      }, {
        "year" : 2021,
        "count" : 35
      }, {
        "year" : 2020,
        "count" : 29
      }, {
        "year" : 2019,
        "count" : 31
      }, {
        "year" : 2018,
        "count" : 34
      }, {
        "year" : 2017,
        "count" : 35
      }, {
        "year" : 2016,
        "count" : 25
      }, {
        "year" : 2015,
        "count" : 37
      }, {
        "year" : 2014,
        "count" : 30
      }, {
        "year" : 2013,
        "count" : 33
      }, {
        "year" : 2012,
        "count" : 23
      }, {
        "year" : 2011,
        "count" : 25
      }, {
        "year" : 2010,
        "count" : 41
      }, {
        "year" : 2009,
        "count" : 27
      }, {
        "year" : 2008,
        "count" : 33
      }, {
        "year" : 2007,
        "count" : 31
      }, {
        "year" : 2006,
        "count" : 55
      }, {
        "year" : 2005,
        "count" : 24
      }, {
        "year" : 2004,
        "count" : 38
      }, {
        "year" : 2003,
        "count" : 45
      }, {
        "year" : 2002,
        "count" : 44
      }, {
        "year" : 2001,
        "count" : 25
      }, {
        "year" : 2000,
        "count" : 45
      }, {
        "year" : 1999,
        "count" : 35
      }, {
        "year" : 1998,
        "count" : 49
      }, {
        "year" : 1997,
        "count" : 69
      }, {
        "year" : 1996,
        "count" : 63
      }, {
        "year" : 1995,
        "count" : 54
      }, {
        "year" : 1994,
        "count" : 41
      }, {
        "year" : 1993,
        "count" : 52
      }, {
        "year" : 1992,
        "count" : 61
      }, {
        "year" : 1991,
        "count" : 69
      }, {
        "year" : 1990,
        "count" : 46
      }, {
        "year" : 1989,
        "count" : 46
      }, {
        "year" : 1988,
        "count" : 55
      }, {
        "year" : 1987,
        "count" : 49
      }, {
        "year" : 1986,
        "count" : 62
      }, {
        "year" : 1985,
        "count" : 69
      }, {
        "year" : 1984,
        "count" : 53
      }, {
        "year" : 1983,
        "count" : 50
      }, {
        "year" : 1982,
        "count" : 46
      }, {
        "year" : 1981,
        "count" : 61
      }, {
        "year" : 1980,
        "count" : 54
      }, {
        "year" : 1979,
        "count" : 49
      }, {
        "year" : 1978,
        "count" : 44
      }, {
        "year" : 1977,
        "count" : 33
      }, {
        "year" : 1976,
        "count" : 64
      }, {
        "year" : 1975,
        "count" : 65
      }, {
        "year" : 1974,
        "count" : 39
      }, {
        "year" : 1973,
        "count" : 52
      }, {
        "year" : 1972,
        "count" : 55
      }, {
        "year" : 1971,
        "count" : 50
      }, {
        "year" : 1970,
        "count" : 37
      }, {
        "year" : 1969,
        "count" : 35
      }, {
        "year" : 1968,
        "count" : 61
      }, {
        "year" : 1967,
        "count" : 51
      }, {
        "year" : 1966,
        "count" : 29
      }, {
        "year" : 1965,
        "count" : 40
      }, {
        "year" : 1964,
        "count" : 52
      }, {
        "year" : 1963,
        "count" : 32
      }, {
        "year" : 1962,
        "count" : 31
      }, {
        "year" : 1961,
        "count" : 30
      }, {
        "year" : 1960,
        "count" : 31
      }, {
        "year" : 1959,
        "count" : 28
      }, {
        "year" : 1958,
        "count" : 34
      }, {
        "year" : 1957,
        "count" : 21
      }, {
        "year" : 1956,
        "count" : 15
      }, {
        "year" : 1955,
        "count" : 16
      }, {
        "year" : 1954,
        "count" : 26
      }, {
        "year" : 1953,
        "count" : 19
      }, {
        "year" : 1952,
        "count" : 25
      }, {
        "year" : 1951,
        "count" : 22
      }, {
        "year" : 1950,
        "count" : 13
      }, {
        "year" : 1949,
        "count" : 46
      }, {
        "year" : 1948,
        "count" : 33
      }, {
        "year" : 1947,
        "count" : 30
      }, {
        "year" : 1946,
        "count" : 25
      }, {
        "year" : 1945,
        "count" : 16
      }, {
        "year" : 1944,
        "count" : 10
      }, {
        "year" : 1943,
        "count" : 11
      }, {
        "year" : 1942,
        "count" : 9
      }, {
        "year" : 1941,
        "count" : 5
      }, {
        "year" : 1940,
        "count" : 11
      }, {
        "year" : 1939,
        "count" : 27
      }, {
        "year" : 1938,
        "count" : 18
      }, {
        "year" : 1937,
        "count" : 15
      }, {
        "year" : 1936,
        "count" : 15
      }, {
        "year" : 1935,
        "count" : 8
      }, {
        "year" : 1934,
        "count" : 14
      }, {
        "year" : 1933,
        "count" : 18
      }, {
        "year" : 1932,
        "count" : 14
      }, {
        "year" : 1931,
        "count" : 13
      }, {
        "year" : 1930,
        "count" : 6
      }, {
        "year" : 1929,
        "count" : 10
      }, {
        "year" : 1928,
        "count" : 12
      }, {
        "year" : 1927,
        "count" : 10
      }, {
        "year" : 1926,
        "count" : 22
      }, {
        "year" : 1925,
        "count" : 26
      }, {
        "year" : 1924,
        "count" : 4
      }, {
        "year" : 1923,
        "count" : 10
      }, {
        "year" : 1922,
        "count" : 12
      }, {
        "year" : 1921,
        "count" : 13
      }, {
        "year" : 1920,
        "count" : 20
      }, {
        "year" : 1919,
        "count" : 22
      }, {
        "year" : 1918,
        "count" : 12
      }, {
        "year" : 1917,
        "count" : 8
      }, {
        "year" : 1916,
        "count" : 16
      }, {
        "year" : 1915,
        "count" : 14
      }, {
        "year" : 1914,
        "count" : 17
      }, {
        "year" : 1913,
        "count" : 5
      }, {
        "year" : 1912,
        "count" : 4
      }, {
        "year" : 1911,
        "count" : 11
      }, {
        "year" : 1910,
        "count" : 2
      }, {
        "year" : 1909,
        "count" : 7
      }, {
        "year" : 1908,
        "count" : 12
      }, {
        "year" : 1907,
        "count" : 11
      }, {
        "year" : 1906,
        "count" : 16
      }, {
        "year" : 1905,
        "count" : 5
      }, {
        "year" : 1904,
        "count" : 3
      }, {
        "year" : 1903,
        "count" : 6
      }, {
        "year" : 1902,
        "count" : 11
      }, {
        "year" : 1901,
        "count" : 4
      }, {
        "year" : 1900,
        "count" : 8
      }, {
        "year" : 1899,
        "count" : 7
      }, {
        "year" : 1898,
        "count" : 12
      }, {
        "year" : 1897,
        "count" : 15
      }, {
        "year" : 1896,
        "count" : 9
      }, {
        "year" : 1895,
        "count" : 10
      }, {
        "year" : 1894,
        "count" : 17
      }, {
        "year" : 1893,
        "count" : 9
      }, {
        "year" : 1892,
        "count" : 17
      }, {
        "year" : 1891,
        "count" : 17
      }, {
        "year" : 1890,
        "count" : 12
      }, {
        "year" : 1889,
        "count" : 19
      }, {
        "year" : 1888,
        "count" : 13
      }, {
        "year" : 1887,
        "count" : 18
      }, {
        "year" : 1886,
        "count" : 6
      }, {
        "year" : 1885,
        "count" : 9
      }, {
        "year" : 1884,
        "count" : 9
      }, {
        "year" : 1883,
        "count" : 12
      }, {
        "year" : 1882,
        "count" : 19
      }, {
        "year" : 1881,
        "count" : 9
      }, {
        "year" : 1880,
        "count" : 7
      }, {
        "year" : 1879,
        "count" : 10
      }, {
        "year" : 1878,
        "count" : 13
      }, {
        "year" : 1877,
        "count" : 10
      }, {
        "year" : 1876,
        "count" : 12
      }, {
        "year" : 1875,
        "count" : 12
      }, {
        "year" : 1874,
        "count" : 14
      }, {
        "year" : 1873,
        "count" : 10
      }, {
        "year" : 1872,
        "count" : 12
      }, {
        "year" : 1871,
        "count" : 20
      }, {
        "year" : 1870,
        "count" : 12
      }, {
        "year" : 1869,
        "count" : 15
      }, {
        "year" : 1868,
        "count" : 26
      }, {
        "year" : 1867,
        "count" : 16
      }, {
        "year" : 1866,
        "count" : 10
      }, {
        "year" : 1865,
        "count" : 19
      }, {
        "year" : 1864,
        "count" : 10
      }, {
        "year" : 1863,
        "count" : 8
      }, {
        "year" : 1862,
        "count" : 11
      }, {
        "year" : 1861,
        "count" : 13
      }, {
        "year" : 1860,
        "count" : 15
      }, {
        "year" : 1859,
        "count" : 13
      }, {
        "year" : 1858,
        "count" : 11
      }, {
        "year" : 1857,
        "count" : 8
      }, {
        "year" : 1856,
        "count" : 10
      }, {
        "year" : 1855,
        "count" : 15
      }, {
        "year" : 1854,
        "count" : 12
      }, {
        "year" : 1853,
        "count" : 11
      }, {
        "year" : 1852,
        "count" : 13
      }, {
        "year" : 1851,
        "count" : 9
      }, {
        "year" : 1850,
        "count" : 6
      }, {
        "year" : 1849,
        "count" : 8
      }, {
        "year" : 1848,
        "count" : 9
      }, {
        "year" : 1847,
        "count" : 12
      }, {
        "year" : 1846,
        "count" : 7
      }, {
        "year" : 1845,
        "count" : 17
      }, {
        "year" : 1844,
        "count" : 11
      }, {
        "year" : 1843,
        "count" : 9
      }, {
        "year" : 1842,
        "count" : 72
      }, {
        "year" : 1841,
        "count" : 5
      }, {
        "year" : 1840,
        "count" : 11
      }, {
        "year" : 1839,
        "count" : 5
      }, {
        "year" : 1838,
        "count" : 11
      }, {
        "year" : 1837,
        "count" : 7
      }, {
        "year" : 1836,
        "count" : 7
      }, {
        "year" : 1835,
        "count" : 4
      }, {
        "year" : 1834,
        "count" : 2
      }, {
        "year" : 1833,
        "count" : 12
      }, {
        "year" : 1832,
        "count" : 8
      }, {
        "year" : 1831,
        "count" : 4
      }, {
        "year" : 1830,
        "count" : 5
      }, {
        "year" : 1829,
        "count" : 3
      }, {
        "year" : 1828,
        "count" : 7
      }, {
        "year" : 1827,
        "count" : 1
      }, {
        "year" : 1826,
        "count" : 3
      }, {
        "year" : 1825,
        "count" : 5
      }, {
        "year" : 1824,
        "count" : 5
      }, {
        "year" : 1823,
        "count" : 4
      }, {
        "year" : 1822,
        "count" : 2
      }, {
        "year" : 1821,
        "count" : 3
      }, {
        "year" : 1820,
        "count" : 1
      }, {
        "year" : 1819,
        "count" : 6
      }, {
        "year" : 1818,
        "count" : 2
      }, {
        "year" : 1817,
        "count" : 5
      }, {
        "year" : 1816,
        "count" : 5
      }, {
        "year" : 1815,
        "count" : 2
      }, {
        "year" : 1814,
        "count" : 2
      }, {
        "year" : 1812,
        "count" : 1
      }, {
        "year" : 1811,
        "count" : 1
      }, {
        "year" : 1809,
        "count" : 3
      }, {
        "year" : 1808,
        "count" : 7
      }, {
        "year" : 1806,
        "count" : 1
      }, {
        "year" : 1805,
        "count" : 1
      }, {
        "year" : 1804,
        "count" : 3
      }, {
        "year" : 1803,
        "count" : 4
      }, {
        "year" : 1802,
        "count" : 1
      }, {
        "year" : 1801,
        "count" : 4
      } ],
      "bySubjectInitial" : [ ]
    },
    "subjects" : [ ]
  },
  "documents" : [ {
    "id" : "ukpga/2024/24",
    "longType" : "UnitedKingdomPublicGeneralAct",
    "year" : 2024,
    "number" : 24,
    "altNumbers" : [ ],
    "isbn" : "9780105702672",
    "cite" : "2024 c. 24",
    "title" : "Budget Responsibility Act 2024",
    "description" : "An Act to impose duties on the Treasury and the Office for Budget Responsibility in respect of the announcement of fiscally significant measures.",
    "published" : "2024-09-10T16:19:53.337093Z",
    "updated" : "2024-10-16T14:02:23Z",
    "version" : "2024-10-15",
    "formats" : [ "xml", "pdf" ]
  }, {
    "id" : "ukpga/2024/23",
    "longType" : "UnitedKingdomPublicGeneralAct",
    "year" : 2024,
    "number" : 23,
    "altNumbers" : [ ],
    "isbn" : "9780105702665",
    "cite" : "2024 c. 23",
    "title" : "Supply and Appropriation (Main Estimates) Act 2024",
    "description" : "An Act to authorise the use of resources for the year ending with 31 March 2025; to authorise both the issue of sums out of the Consolidated Fund and the application of income for that year; and to appropriate the supply authorised for that year by this Act and by the Supply and Appropriation (Anticipation and Adjustments) Act 2024.",
    "published" : "2024-07-31T14:30:44.788658Z",
    "updated" : "2024-09-03T12:40:39Z",
    "version" : "2024-07-30",
    "formats" : [ "xml", "pdf" ]
  }, {
    "id" : "ukpga/2024/22",
    "longType" : "UnitedKingdomPublicGeneralAct",
    "year" : 2024,
    "number" : 22,
    "altNumbers" : [ ],
    "isbn" : "9780105702641",
    "cite" : "2024 c. 22",
    "title" : "Leasehold and Freehold Reform Act 2024",
    "description" : "An Act to prohibit the grant or assignment of certain new long residential leases of houses, to amend the rights of tenants under long residential leases to acquire the freeholds of their houses, to extend the leases of their houses or flats, and to collectively enfranchise or manage the buildings containing their flats, to give such tenants the right to reduce the rent payable under their leases to a peppercorn, to regulate the relationship between residential landlords and tenants, to regulate residential estate management, to regulate rentcharges and to amend the Building Safety Act 2022 in connection with the remediation of building defects and the insolvency of persons who have repairing obligations relating to certain kinds of buildings.",
    "published" : "2024-06-03T16:19:47.87452Z",
    "updated" : "2024-11-04T11:32:30Z",
    "version" : "2024-10-31",
    "formats" : [ "xml", "pdf" ]
  }, {
    "id" : "ukpga/2024/21",
    "longType" : "UnitedKingdomPublicGeneralAct",
    "year" : 2024,
    "number" : 21,
    "altNumbers" : [ ],
    "isbn" : "9780105702634",
    "cite" : "2024 c. 21",
    "title" : "Victims and Prisoners Act 2024",
    "description" : "An Act to make provision about victims of criminal conduct and others affected by criminal conduct; about the appointment and functions of advocates for victims of major incidents; for an infected blood compensation scheme; about the release of prisoners; about the membership and functions of the Parole Board; to prohibit certain prisoners from forming a marriage or civil partnership; and for connected purposes.",
    "published" : "2024-06-03T16:14:35.844788Z",
    "updated" : "2024-11-06T17:56:52Z",
    "version" : "2024-11-01",
    "formats" : [ "xml", "pdf" ]
  }, {
    "id" : "ukpga/2024/20",
    "longType" : "UnitedKingdomPublicGeneralAct",
    "year" : 2024,
    "number" : 20,
    "altNumbers" : [ ],
    "isbn" : "9780105702580",
    "cite" : "2024 c. 20",
    "title" : "Zoological Society of London (Leases) Act 2024",
    "description" : "An Act to amend the Crown Estate Act 1961 to increase the maximum term of the lease that may be granted to the Zoological Society of London in respect of land in Regent’s Park.",
    "published" : "2024-05-30T17:09:27.563445Z",
    "updated" : "2024-07-26T09:07:48Z",
    "version" : "2024-07-24",
    "formats" : [ "xml", "pdf" ]
  }, {
    "id" : "ukpga/2024/19",
    "longType" : "UnitedKingdomPublicGeneralAct",
    "year" : 2024,
    "number" : 19,
    "altNumbers" : [ ],
    "isbn" : "9780105702627",
    "cite" : "2024 c. 19",
    "title" : "British Nationality (Irish Citizens) Act 2024",
    "description" : "An Act to make provision for Irish citizens who have been resident in the United Kingdom for five years to be entitled to British citizenship; and for connected purposes.",
    "published" : "2024-06-03T16:09:51.364037Z",
    "updated" : "2024-06-12T09:18:09Z",
    "version" : "2024-05-24",
    "formats" : [ "xml", "pdf" ]
  }, {
    "id" : "ukpga/2024/18",
    "longType" : "UnitedKingdomPublicGeneralAct",
    "year" : 2024,
    "number" : 18,
    "altNumbers" : [ ],
    "isbn" : "9780105702610",
    "cite" : "2024 c. 18",
    "title" : "Building Societies Act 1986 (Amendment) Act 2024",
    "description" : "An Act to make provision about funding of building societies and the assimilation of the law relating to companies and the law relating to building societies.",
    "published" : "2024-06-03T15:59:22.034634Z",
    "updated" : "2024-08-21T11:35:14Z",
    "version" : "2024-07-24",
    "formats" : [ "xml", "pdf" ]
  }, {
    "id" : "ukpga/2024/17",
    "longType" : "UnitedKingdomPublicGeneralAct",
    "year" : 2024,
    "number" : 17,
    "altNumbers" : [ ],
    "isbn" : "9780105702573",
    "cite" : "2024 c. 17",
    "title" : "Paternity Leave (Bereavement) Act 2024",
    "description" : "An Act to make provision about paternity leave in cases where a mother, or a person with whom a child is placed or expected to be placed for adoption, dies.",
    "published" : "2024-05-30T17:04:14.058656Z",
    "updated" : "2024-06-11T13:35:49Z",
    "version" : "2024-05-24",
    "formats" : [ "xml", "pdf" ]
  }, {
    "id" : "ukpga/2024/16",
    "longType" : "UnitedKingdomPublicGeneralAct",
    "year" : 2024,
    "number" : 16,
    "altNumbers" : [ ],
    "isbn" : "9780105702566",
    "cite" : "2024 c. 16",
    "title" : "Pet Abduction Act 2024",
    "description" : "An Act to create offences of dog abduction and cat abduction and to confer a power to make corresponding provision relating to the abduction of other animals commonly kept as pets.",
    "published" : "2024-05-30T16:59:08.55125Z",
    "updated" : "2024-08-27T09:49:27Z",
    "version" : "2024-08-24",
    "formats" : [ "xml", "pdf" ]
  }, {
    "id" : "ukpga/2024/15",
    "longType" : "UnitedKingdomPublicGeneralAct",
    "year" : 2024,
    "number" : 15,
    "altNumbers" : [ ],
    "isbn" : "9780105702658",
    "cite" : "2024 c. 15",
    "title" : "Media Act 2024",
    "description" : "An Act to make provision about public service television; about the sustainability of, and programme-making by, C4C; about the name, remit, powers, governance and audit of S4C; about the regulation of television selection services; about the regulation of on-demand programme services; about the regulation of radio services; about the regulation of radio selection services; for the repeal of section 40 of the Crime and Courts Act 2013; for addressing deficiencies in broadcasting legislation arising from the withdrawal of the United Kingdom from the European Union; and for connected purposes.",
    "published" : "2024-06-04T12:30:36.002796Z",
    "updated" : "2024-10-23T15:05:15Z",
    "version" : "2024-10-17",
    "formats" : [ "xml", "pdf" ]
  }, {
    "id" : "ukpga/2024/14",
    "longType" : "UnitedKingdomPublicGeneralAct",
    "year" : 2024,
    "number" : 14,
    "altNumbers" : [ ],
    "isbn" : "9780105702559",
    "cite" : "2024 c. 14",
    "title" : "Post Office (Horizon System) Offences Act 2024",
    "description" : "An Act to provide for the quashing of convictions in England and Wales and Northern Ireland for certain offences alleged to have been committed while the Horizon system was in use by the Post Office; to make provision about the deletion of cautions given in England and Wales or Northern Ireland for such offences; and for connected purposes.",
    "published" : "2024-05-30T09:36:46.582486Z",
    "updated" : "2024-07-30T13:54:55Z",
    "version" : "2024-05-24",
    "formats" : [ "xml", "pdf" ]
  }, {
    "id" : "ukpga/2024/13",
    "longType" : "UnitedKingdomPublicGeneralAct",
    "year" : 2024,
    "number" : 13,
    "altNumbers" : [ ],
    "isbn" : "9780105702603",
    "cite" : "2024 c. 13",
    "title" : "Digital Markets, Competition and Consumers Act 2024",
    "description" : "An Act to provide for the regulation of competition in digital markets; to amend the Competition Act 1998 and the Enterprise Act 2002 and to make other provision about competition law; to make provision relating to the protection of consumer rights and to confer further such rights; and for connected purposes.",
    "published" : "2024-07-16T00:00:00Z",
    "updated" : "2024-07-26T08:18:31Z",
    "version" : "2024-07-24",
    "formats" : [ "xml", "pdf" ]
  }, {
    "id" : "ukpga/2024/12",
    "longType" : "UnitedKingdomPublicGeneralAct",
    "year" : 2024,
    "number" : 12,
    "altNumbers" : [ ],
    "isbn" : "9780105702597",
    "cite" : "2024 c. 12",
    "title" : "Finance (No. 2) Act 2024",
    "description" : "An Act to make provision in connection with finance.",
    "published" : "2024-05-31T16:53:15.313973Z",
    "updated" : "2024-06-05T12:27:30Z",
    "version" : "2024-05-24",
    "formats" : [ "xml", "pdf" ]
  }, {
    "id" : "ukpga/2024/11",
    "longType" : "UnitedKingdomPublicGeneralAct",
    "year" : 2024,
    "number" : 11,
    "altNumbers" : [ ],
    "isbn" : "9780105702535",
    "cite" : "2024 c. 11",
    "title" : "Animal Welfare (Livestock Exports) Act 2024",
    "description" : "An Act to prohibit the export of certain livestock from Great Britain for slaughter.",
    "published" : "2024-05-21T14:39:04.984569Z",
    "updated" : "2024-08-04T19:51:35Z",
    "version" : "2024-07-22",
    "formats" : [ "xml", "pdf" ]
  }, {
    "id" : "ukpga/2024/10",
    "longType" : "UnitedKingdomPublicGeneralAct",
    "year" : 2024,
    "number" : 10,
    "altNumbers" : [ ],
    "isbn" : "9780105702542",
    "cite" : "2024 c. 10",
    "title" : "Automated Vehicles Act 2024",
    "description" : "An Act to regulate the use of automated vehicles on roads and in other public places; and to make other provision in relation to vehicle automation.",
    "published" : "2024-05-22T19:07:30.494629Z",
    "updated" : "2024-07-30T12:46:24Z",
    "version" : "2024-05-20",
    "formats" : [ "xml", "pdf" ]
  }, {
    "id" : "ukpga/2024/9",
    "longType" : "UnitedKingdomPublicGeneralAct",
    "year" : 2024,
    "number" : 9,
    "altNumbers" : [ ],
    "isbn" : "9780105702528",
    "cite" : "2024 c. 9",
    "title" : "Investigatory Powers (Amendment) Act 2024",
    "description" : "An Act to amend the Investigatory Powers Act 2016; to make provision about information supplied by, or relating to, the Judicial Commissioners; and for connected purposes.",
    "published" : "2024-04-29T16:21:15.273338Z",
    "updated" : "2024-10-16T11:36:48Z",
    "version" : "2024-10-14",
    "formats" : [ "xml", "pdf" ]
  }, {
    "id" : "ukpga/2024/8",
    "longType" : "UnitedKingdomPublicGeneralAct",
    "year" : 2024,
    "number" : 8,
    "altNumbers" : [ ],
    "isbn" : "9780105702511",
    "cite" : "2024 c. 8",
    "title" : "Safety of Rwanda (Asylum and Immigration) Act 2024",
    "description" : "An Act to make provision about the removal of certain migrants to the Republic of Rwanda.",
    "published" : "2024-04-25T15:33:51.163974Z",
    "updated" : "2024-06-26T19:03:20Z",
    "version" : "2024-04-25",
    "formats" : [ "xml", "pdf" ]
  }, {
    "id" : "ukpga/2024/7",
    "longType" : "UnitedKingdomPublicGeneralAct",
    "year" : 2024,
    "number" : 7,
    "altNumbers" : [ ],
    "isbn" : "9780105702504",
    "cite" : "2024 c. 7",
    "title" : "Pedicabs (London) Act 2024",
    "description" : "An Act to make provision for regulating pedicabs in public places in Greater London; and for connected purposes.",
    "published" : "2024-04-25T15:28:46.413124Z",
    "updated" : "2024-07-17T18:04:19Z",
    "version" : "2024-06-25",
    "formats" : [ "xml", "pdf" ]
  }, {
    "id" : "ukpga/2024/6",
    "longType" : "UnitedKingdomPublicGeneralAct",
    "year" : 2024,
    "number" : 6,
    "altNumbers" : [ ],
    "isbn" : "9780105702498",
    "cite" : "2024 c. 6",
    "title" : "Trade (Comprehensive and Progressive Agreement for Trans-Pacific Partnership) Act 2024",
    "description" : "An Act to enable the implementation of, and the making of other provision in connection with, the Comprehensive and Progressive Agreement for Trans-Pacific Partnership.",
    "published" : "2024-03-25T16:44:38.250586Z",
    "updated" : "2024-05-29T11:02:47Z",
    "version" : "2024-03-20",
    "formats" : [ "xml", "pdf" ]
  }, {
    "id" : "ukpga/2024/5",
    "longType" : "UnitedKingdomPublicGeneralAct",
    "year" : 2024,
    "number" : 5,
    "altNumbers" : [ ],
    "isbn" : "9780105702474",
    "cite" : "2024 c. 5",
    "title" : "National Insurance Contributions (Reduction in Rates) Act 2024",
    "description" : "An Act to make provision for and in connection with reducing the main rates of primary Class 1 national insurance contributions and Class 4 national insurance contributions.",
    "published" : "2024-03-20T16:06:33.129257Z",
    "updated" : "2024-07-29T13:04:25Z",
    "version" : "2024-04-06",
    "formats" : [ "xml", "pdf" ]
  } ]
}